The mtcars example • drake
…
outdated(config) # Everything is up to date.
## character(0)

build_times(digits = 4) # How long did it take to make each target?
## # A tibble: 28 x 5
##    item                   type   elapsed        user           system     
##  * <chr>                  <chr>  <S4: Duration> <S4: Duration> <S4: Durat>
##  1 "\"report.md\""        target 0.101s         0.061s         0.006s     
##  2 "\"report.Rmd\""       import 0.013s         0s             0.001s     
##  3 coef_regression1_large target 0.017s         0.006s         0.001s     
##  4 coef_regression1_small target 0.017s         0.006s         0s         
##  5 coef_regression2_large target 0.018s         0.007s         0s         
##  6 coef_regression2_small target 0.017s         0.005s         0.001s     
##  7 data.frame             import 0.046s         0.033s         0.001s     
##  8 knit                   import 0.045s         0.031s         0.001s     
##  9 large                  target 0.094s         0.078s         0.002s     
## 10 lm                     import 0.024s         0.015s         0s         
## # ... with 18 more rows
…
