Time logging • drake
…
      Time logging

                        Will Landau

            2018-04-27

Thanks to Jasper Clarkberg, drake records how long it takes to build each target. For large projects that take hours or days to run, this feature becomes important for planning and execution.

library(drake)
load_mtcars_example() # Get the code with drake_example("mtcars").
make(my_plan, jobs = 2, verbose = FALSE) # See also max_useful_jobs(my_plan).

build_times(digits = 8) # From the cache.
## # A tibble: 28 x 5
##    item                   type   elapsed        user           system     
##  * <chr>                  <chr>  <S4: Duration> <S4: Duration> <S4: Durat>
##  1 "\"report.md\""        target 0.279s         0.178s         0.009s     
##  2 "\"report.Rmd\""       import 0.047s         0.004s         0.003s     
##  3 coef_regression1_large target 0.076s         0.017s         0.004s     
##  4 coef_regression1_small target 0.078s         0.01s          0.011s     
##  5 coef_regression2_large target 0.054s         0.007s         0.002s     
##  6 coef_regression2_small target 0.045s         0.005s         0.004s     
##  7 data.frame             import 0.126s         0.051s         0.02s      
##  8 knit                   import 0.08s          0.04s          0.011s     
##  9 large                  target 0.069s         0.008s         0.009s     
## 10 lm                     import 0.048s         0.02s          0.001s     
## # ... with 18 more rows
…
